{
  "project_info": {
    "project_number": "487501384348",
    "firebase_url": "https://qsaude-f8bb7.firebaseio.com",
    "project_id": "qsaude-f8bb7",
    "storage_bucket": "qsaude-f8bb7.appspot.com"
  },
  "client": [
    {
      "client_info": {
        "mobilesdk_app_id": "1:487501384348:android:235edfa1bc3850dd3c7b59",
        "android_client_info": {
          "package_name": "com.qsaude"
        }
      },
      "oauth_client": [
        {
          "client_id": "487501384348-rikgasmdemnnj1h2dds3kpd76dvorf5t.apps.googleusercontent.com",
          "client_type": 3
        }
      ],
      "api_key": [
        {
          "current_key": "AIzaSyBFvB5guF85haQZmYcGMNeHXKrLOg_8WEs"
        }
      ],
      "services": {
        "appinvite_service": {
          "other_platform_oauth_client": [
            {
              "client_id": "487501384348-rikgasmdemnnj1h2dds3kpd76dvorf5t.apps.googleusercontent.com",
              "client_type": 3
            },
            {
              "client_id": "487501384348-qp376gnl0k7q99sj1mfobbd8d1ineqsu.apps.googleusercontent.com",
              "client_type": 2,
              "ios_info": {
                "bundle_id": "br.com.gama.saude.dev"
              }
            }
          ]
        }
      }
    },
    {
      "client_info": {
        "mobilesdk_app_id": "1:487501384348:android:67266e4f3ebdd2633c7b59",
        "android_client_info": {
          "package_name": "com.qsaude.dev"
        }
      },
      "oauth_client": [
        {
          "client_id": "487501384348-rikgasmdemnnj1h2dds3kpd76dvorf5t.apps.googleusercontent.com",
          "client_type": 3
        }
      ],
      "api_key": [
        {
          "current_key": "AIzaSyBFvB5guF85haQZmYcGMNeHXKrLOg_8WEs"
        }
      ],
      "services": {
        "appinvite_service": {
          "other_platform_oauth_client": [
            {
              "client_id": "487501384348-rikgasmdemnnj1h2dds3kpd76dvorf5t.apps.googleusercontent.com",
              "client_type": 3
            },
            {
              "client_id": "487501384348-qp376gnl0k7q99sj1mfobbd8d1ineqsu.apps.googleusercontent.com",
              "client_type": 2,
              "ios_info": {
                "bundle_id": "br.com.gama.saude.dev"
              }
            }
          ]
        }
      }
    },
    {
      "client_info": {
        "mobilesdk_app_id": "1:487501384348:android:235edfa1bc3850dd3c7b59",
        "android_client_info": {
          "package_name": "com.qsaude.staging"
        }
      },
      "oauth_client": [
        {
          "client_id": "487501384348-rikgasmdemnnj1h2dds3kpd76dvorf5t.apps.googleusercontent.com",
          "client_type": 3
        }
      ],
      "api_key": [
        {
          "current_key": "AIzaSyBFvB5guF85haQZmYcGMNeHXKrLOg_8WEs"
        }
      ],
      "services": {
        "appinvite_service": {
          "other_platform_oauth_client": [
            {
              "client_id": "487501384348-rikgasmdemnnj1h2dds3kpd76dvorf5t.apps.googleusercontent.com",
              "client_type": 3
            },
            {
              "client_id": "487501384348-qp376gnl0k7q99sj1mfobbd8d1ineqsu.apps.googleusercontent.com",
              "client_type": 2,
              "ios_info": {
                "bundle_id": "br.com.gama.saude.dev"
              }
            }
          ]
        }
      }
    }
  ],
  "configuration_version": "1"
}